<?xml version="1.0" encoding="UTF-8" standalone="yes"?>
<!-- Created with sK1/UniConvertor (http://sk1project.org/) -->
<svg xmlns="http://www.w3.org/2000/svg" xmlns:xlink="http://www.w3.org/1999/xlink"
  width="595.276pt" height="841.89pt" viewBox="0 0 595.276 841.89"
  fill-rule="evenodd">
<g>
<path style="stroke:none; fill:none" d="M 111.71 711.155C 114.143 667.427 154.909 634.044 202.764 636.593C 250.618 639.142 287.439 676.657 285.006 720.385C 282.573 764.112 241.807 797.495 193.952 794.946C 146.098 792.397 109.277 754.882 111.71 711.155z"/>
</g>
</svg>